Working with rminte: R interface for MINTe malaria intervention emulator • rminte
…
6. Exploring Results with dplyr

Let’s use tidyverse tools to analyze the results.

# First few rows by scenario
res_multi$prevalence %>%
 group_by(scenario_tag) %>%
 slice_head(n = 3) %>%
 print(n = 20)
#> # A tibble: 33 × 7
#> # Groups:   scenario_tag [11]
#>    index timestep prevalence model_type scenario         scenario_tag  eir_valid
#>    <dbl>    <dbl>      <dbl> <chr>      <chr>            <chr>         <lgl>    
#>  1     1        1      0.516 LSTM       irs_only         irs_only      FALSE    
#>  2     1        2      0.522 LSTM       irs_only         irs_only      FALSE    
#>  3     1        3      0.511 LSTM       irs_only         irs_only      FALSE    
#>  4     2        1      0.459 LSTM       lsm_only         lsm_only      TRUE     
#>  5     2        2      0.499 LSTM       lsm_only         lsm_only      TRUE     
#>  6     2        3      0.499 LSTM       lsm_only         lsm_only      TRUE     
#>  7     0        1      0.459 LSTM       no_intervention  no_intervent… TRUE     
#>  8     0        2      0.499 LSTM       no_intervention  no_intervent… TRUE     
#>  9     0        3      0.499 LSTM       no_intervention  no_intervent… TRUE     
#> 10     3        1      0.486 LSTM       py_only_only     py_only_only  TRUE     
#> 11     3        2      0.540 LSTM       py_only_only     py_only_only  TRUE     
#> 12     3        3      0.541 LSTM       py_only_only     py_only_only  TRUE     
#> 13     4        1      0.486 LSTM       py_only_with_lsm py_only_with… TRUE     
#> 14     4        2      0.540 LSTM       py_only_with_lsm py_only_with… TRUE     
#> 15     4        3      0.541 LSTM       py_only_with_lsm py_only_with… TRUE     
#> 16     5        1      0.475 LSTM       py_pbo_only      py_pbo_only   TRUE     
#> 17     5        2      0.518 LSTM       py_pbo_only      py_pbo_only   TRUE     
#> 18     5        3      0.520 LSTM       py_pbo_only      py_pbo_only   TRUE     
#> 19     6        1      0.475 LSTM       py_pbo_with_lsm  py_pbo_with_… TRUE     
#> 20     6        2      0.518 LSTM       py_pbo_with_lsm  py_pbo_with_… TRUE     
#> # ℹ 13 more rows
…
